{
  "version": "v4",
  "repo": "borisyankov/DefinitelyTyped",
  "ref": "master",
  "path": "typings",
  "bundle": "typings/tsd.d.ts",
  "installed": {
    "jquery/jquery.d.ts": {
      "commit": "08ed4e9f1869e37e29514d862e0158b40e550232"
    },
    "jqueryui/jqueryui.d.ts": {
      "commit": "08ed4e9f1869e37e29514d862e0158b40e550232"
    }
  }
}
